,patient,severity
0,0,[0.0]
1,1,[0.0]
2,2,[0.0]
3,3,[1.0]
4,4,[1.0]
5,5,[1.0]
6,6,[1.0]
7,7,[2.0]
8,8,[2.0]
9,9,[2.0]
10,10,[0.0]
11,11,[0.0]
12,12,[0.0]
13,13,[1.0]
14,14,[1.0]
15,15,[1.0]
16,16,[1.0]
17,17,[2.0]
18,18,[2.0]
19,19,[2.0]
20,20,[0.0]
21,21,[0.0]
22,22,[0.0]
23,23,[1.0]
24,24,[1.0]
25,25,[1.0]
26,26,[1.0]
27,27,[2.0]
28,28,[2.0]
29,29,[2.0]
30,30,[0.0]
31,31,[0.0]
32,32,[0.0]
33,33,[1.0]
34,34,[1.0]
35,35,[1.0]
36,36,[1.0]
37,37,[2.0]
38,38,[2.0]
39,39,[2.0]
40,40,[0.0]
41,41,[0.0]
42,42,[0.0]
43,43,[1.0]
44,44,[1.0]
45,45,[1.0]
46,46,[1.0]
47,47,[2.0]
48,48,[2.0]
49,49,[2.0]
50,50,[0.0]
51,51,[0.0]
52,52,[0.0]
53,53,[1.0]
54,54,[1.0]
55,55,[1.0]
56,56,[1.0]
57,57,[2.0]
58,58,[2.0]
59,59,[2.0]
60,60,[0.0]
61,61,[0.0]
62,62,[0.0]
63,63,[1.0]
64,64,[1.0]
65,65,[1.0]
66,66,[1.0]
67,67,[2.0]
68,68,[2.0]
69,69,[2.0]
70,70,[0.0]
71,71,[0.0]
72,72,[0.0]
73,73,[1.0]
74,74,[1.0]
75,75,[1.0]
76,76,[1.0]
77,77,[2.0]
78,78,[2.0]
79,79,[2.0]
80,80,[0.0]
81,81,[0.0]
82,82,[0.0]
83,83,[1.0]
84,84,[1.0]
85,85,[1.0]
86,86,[1.0]
87,87,[2.0]
88,88,[2.0]
89,89,[2.0]
90,90,[0.0]
91,91,[0.0]
92,92,[0.0]
93,93,[1.0]
94,94,[1.0]
95,95,[1.0]
96,96,[1.0]
97,97,[2.0]
98,98,[2.0]
99,99,[2.0]
100,100,[0.0]
101,101,[0.0]
102,102,[0.0]
103,103,[1.0]
104,104,[1.0]
105,105,[1.0]
106,106,[1.0]
107,107,[2.0]
108,108,[2.0]
109,109,[2.0]
110,110,[0.0]
111,111,[0.0]
112,112,[0.0]
113,113,[1.0]
114,114,[1.0]
115,115,[1.0]
116,116,[1.0]
117,117,[2.0]
118,118,[2.0]
119,119,[2.0]
120,120,[0.0]
121,121,[0.0]
122,122,[0.0]
123,123,[1.0]
124,124,[1.0]
125,125,[1.0]
126,126,[1.0]
127,127,[2.0]
128,128,[2.0]
129,129,[2.0]
130,130,[0.0]
131,131,[0.0]
132,132,[0.0]
133,133,[1.0]
134,134,[1.0]
135,135,[1.0]
136,136,[1.0]
137,137,[2.0]
138,138,[2.0]
139,139,[2.0]
140,140,[0.0]
141,141,[0.0]
142,142,[0.0]
143,143,[1.0]
144,144,[1.0]
145,145,[1.0]
146,146,[1.0]
147,147,[2.0]
148,148,[2.0]
149,149,[2.0]
150,150,[0.0]
151,151,[0.0]
152,152,[0.0]
153,153,[1.0]
154,154,[1.0]
155,155,[1.0]
156,156,[1.0]
157,157,[2.0]
158,158,[2.0]
159,159,[2.0]
160,160,[0.0]
161,161,[0.0]
162,162,[0.0]
163,163,[1.0]
164,164,[1.0]
165,165,[1.0]
166,166,[1.0]
167,167,[2.0]
168,168,[2.0]
169,169,[2.0]
170,170,[0.0]
171,171,[0.0]
172,172,[0.0]
173,173,[1.0]
174,174,[1.0]
175,175,[1.0]
176,176,[1.0]
177,177,[2.0]
178,178,[2.0]
179,179,[2.0]
180,180,[0.0]
181,181,[0.0]
182,182,[0.0]
183,183,[1.0]
184,184,[1.0]
185,185,[1.0]
186,186,[1.0]
187,187,[2.0]
188,188,[2.0]
189,189,[2.0]
190,190,[0.0]
191,191,[0.0]
192,192,[0.0]
193,193,[1.0]
194,194,[1.0]
195,195,[1.0]
196,196,[1.0]
197,197,[2.0]
198,198,[2.0]
199,199,[2.0]
200,200,[0.0]
201,201,[0.0]
202,202,[0.0]
203,203,[1.0]
204,204,[1.0]
205,205,[1.0]
206,206,[1.0]
207,207,[2.0]
208,208,[2.0]
209,209,[2.0]
210,210,[0.0]
211,211,[0.0]
212,212,[0.0]
213,213,[1.0]
214,214,[1.0]
215,215,[1.0]
216,216,[1.0]
217,217,[2.0]
218,218,[2.0]
219,219,[2.0]
220,220,[0.0]
221,221,[0.0]
222,222,[0.0]
223,223,[1.0]
224,224,[1.0]
225,225,[1.0]
226,226,[1.0]
227,227,[2.0]
228,228,[2.0]
229,229,[2.0]
230,230,[0.0]
231,231,[0.0]
232,232,[0.0]
233,233,[1.0]
234,234,[1.0]
235,235,[1.0]
236,236,[1.0]
237,237,[2.0]
238,238,[2.0]
239,239,[2.0]
240,240,[0.0]
241,241,[0.0]
242,242,[0.0]
243,243,[1.0]
244,244,[1.0]
245,245,[1.0]
246,246,[1.0]
247,247,[2.0]
248,248,[2.0]
249,249,[2.0]
250,250,[0.0]
251,251,[0.0]
252,252,[0.0]
253,253,[1.0]
254,254,[1.0]
255,255,[1.0]
256,256,[1.0]
257,257,[2.0]
258,258,[2.0]
259,259,[2.0]
260,260,[0.0]
261,261,[0.0]
262,262,[0.0]
263,263,[1.0]
264,264,[1.0]
265,265,[1.0]
266,266,[1.0]
267,267,[2.0]
268,268,[2.0]
269,269,[2.0]
270,270,[0.0]
271,271,[0.0]
272,272,[0.0]
273,273,[1.0]
274,274,[1.0]
275,275,[1.0]
276,276,[1.0]
277,277,[2.0]
278,278,[2.0]
279,279,[2.0]
280,280,[0.0]
281,281,[0.0]
282,282,[0.0]
283,283,[1.0]
284,284,[1.0]
285,285,[1.0]
286,286,[1.0]
287,287,[2.0]
288,288,[2.0]
289,289,[2.0]
290,290,[0.0]
291,291,[0.0]
292,292,[0.0]
293,293,[1.0]
294,294,[1.0]
295,295,[1.0]
296,296,[1.0]
297,297,[2.0]
298,298,[2.0]
299,299,[2.0]
300,300,[0.0]
301,301,[0.0]
302,302,[0.0]
303,303,[1.0]
304,304,[1.0]
305,305,[1.0]
306,306,[1.0]
307,307,[2.0]
308,308,[2.0]
309,309,[2.0]
310,310,[0.0]
311,311,[0.0]
312,312,[0.0]
313,313,[1.0]
314,314,[1.0]
315,315,[1.0]
316,316,[1.0]
317,317,[2.0]
318,318,[2.0]
319,319,[2.0]
320,320,[0.0]
321,321,[0.0]
322,322,[0.0]
323,323,[1.0]
324,324,[1.0]
325,325,[1.0]
326,326,[1.0]
327,327,[2.0]
328,328,[2.0]
329,329,[2.0]
330,330,[0.0]
331,331,[0.0]
332,332,[0.0]
333,333,[1.0]
334,334,[1.0]
335,335,[1.0]
336,336,[1.0]
337,337,[2.0]
338,338,[2.0]
339,339,[2.0]
340,340,[0.0]
341,341,[0.0]
342,342,[0.0]
343,343,[1.0]
344,344,[1.0]
345,345,[1.0]
346,346,[1.0]
347,347,[2.0]
348,348,[2.0]
349,349,[2.0]
350,350,[0.0]
351,351,[0.0]
352,352,[0.0]
353,353,[1.0]
354,354,[1.0]
355,355,[1.0]
356,356,[1.0]
357,357,[2.0]
358,358,[2.0]
359,359,[2.0]
360,360,[0.0]
361,361,[0.0]
362,362,[0.0]
363,363,[1.0]
364,364,[1.0]
365,365,[1.0]
366,366,[1.0]
367,367,[2.0]
368,368,[2.0]
369,369,[2.0]
370,370,[0.0]
371,371,[0.0]
372,372,[0.0]
373,373,[1.0]
374,374,[1.0]
375,375,[1.0]
376,376,[1.0]
377,377,[2.0]
378,378,[2.0]
379,379,[2.0]
380,380,[0.0]
381,381,[0.0]
382,382,[0.0]
383,383,[1.0]
384,384,[1.0]
385,385,[1.0]
386,386,[1.0]
387,387,[2.0]
388,388,[2.0]
389,389,[2.0]
390,390,[0.0]
391,391,[0.0]
392,392,[0.0]
393,393,[1.0]
394,394,[1.0]
395,395,[1.0]
396,396,[1.0]
397,397,[2.0]
398,398,[2.0]
399,399,[2.0]
400,400,[0.0]
401,401,[0.0]
402,402,[0.0]
403,403,[1.0]
404,404,[1.0]
405,405,[1.0]
406,406,[1.0]
407,407,[2.0]
408,408,[2.0]
409,409,[2.0]
410,410,[0.0]
411,411,[0.0]
412,412,[0.0]
413,413,[1.0]
414,414,[1.0]
415,415,[1.0]
416,416,[1.0]
417,417,[2.0]
418,418,[2.0]
419,419,[2.0]
420,420,[0.0]
421,421,[0.0]
422,422,[0.0]
423,423,[1.0]
424,424,[1.0]
425,425,[1.0]
426,426,[1.0]
427,427,[2.0]
428,428,[2.0]
429,429,[2.0]
430,430,[0.0]
431,431,[0.0]
432,432,[0.0]
433,433,[1.0]
434,434,[1.0]
435,435,[1.0]
436,436,[1.0]
437,437,[2.0]
438,438,[2.0]
439,439,[2.0]
440,440,[0.0]
441,441,[0.0]
442,442,[0.0]
443,443,[1.0]
444,444,[1.0]
445,445,[1.0]
446,446,[1.0]
447,447,[2.0]
448,448,[2.0]
449,449,[2.0]
450,450,[0.0]
451,451,[0.0]
452,452,[0.0]
453,453,[1.0]
454,454,[1.0]
455,455,[1.0]
456,456,[1.0]
457,457,[2.0]
458,458,[2.0]
459,459,[2.0]
460,460,[0.0]
461,461,[0.0]
462,462,[0.0]
463,463,[1.0]
464,464,[1.0]
465,465,[1.0]
466,466,[1.0]
467,467,[2.0]
468,468,[2.0]
469,469,[2.0]
470,470,[0.0]
471,471,[0.0]
472,472,[0.0]
473,473,[1.0]
474,474,[1.0]
475,475,[1.0]
476,476,[1.0]
477,477,[2.0]
478,478,[2.0]
479,479,[2.0]
480,480,[0.0]
481,481,[0.0]
482,482,[0.0]
483,483,[1.0]
484,484,[1.0]
485,485,[1.0]
486,486,[1.0]
487,487,[2.0]
488,488,[2.0]
489,489,[2.0]
490,490,[0.0]
491,491,[0.0]
492,492,[0.0]
493,493,[1.0]
494,494,[1.0]
495,495,[1.0]
496,496,[1.0]
497,497,[2.0]
498,498,[2.0]
499,499,[2.0]
500,500,[0.0]
501,501,[0.0]
502,502,[0.0]
503,503,[1.0]
504,504,[1.0]
505,505,[1.0]
506,506,[1.0]
507,507,[2.0]
508,508,[2.0]
509,509,[2.0]
510,510,[0.0]
511,511,[0.0]
512,512,[0.0]
513,513,[1.0]
514,514,[1.0]
515,515,[1.0]
516,516,[1.0]
517,517,[2.0]
518,518,[2.0]
519,519,[2.0]
520,520,[0.0]
521,521,[0.0]
522,522,[0.0]
523,523,[1.0]
524,524,[1.0]
525,525,[1.0]
526,526,[1.0]
527,527,[2.0]
528,528,[2.0]
529,529,[2.0]
530,530,[0.0]
531,531,[0.0]
532,532,[0.0]
533,533,[1.0]
534,534,[1.0]
535,535,[1.0]
536,536,[1.0]
537,537,[2.0]
538,538,[2.0]
539,539,[2.0]
540,540,[0.0]
541,541,[0.0]
542,542,[0.0]
543,543,[1.0]
544,544,[1.0]
545,545,[1.0]
546,546,[1.0]
547,547,[2.0]
548,548,[2.0]
549,549,[2.0]
550,550,[0.0]
551,551,[0.0]
552,552,[0.0]
553,553,[1.0]
554,554,[1.0]
555,555,[1.0]
556,556,[1.0]
557,557,[2.0]
558,558,[2.0]
559,559,[2.0]
560,560,[0.0]
561,561,[0.0]
562,562,[0.0]
563,563,[1.0]
564,564,[1.0]
565,565,[1.0]
566,566,[1.0]
567,567,[2.0]
568,568,[2.0]
569,569,[2.0]
570,570,[0.0]
571,571,[0.0]
572,572,[0.0]
573,573,[1.0]
574,574,[1.0]
575,575,[1.0]
576,576,[1.0]
577,577,[2.0]
578,578,[2.0]
579,579,[2.0]
580,580,[0.0]
581,581,[0.0]
582,582,[0.0]
583,583,[1.0]
584,584,[1.0]
585,585,[1.0]
586,586,[1.0]
587,587,[2.0]
588,588,[2.0]
589,589,[2.0]
590,590,[0.0]
591,591,[0.0]
592,592,[0.0]
593,593,[1.0]
594,594,[1.0]
595,595,[1.0]
596,596,[1.0]
597,597,[2.0]
598,598,[2.0]
599,599,[2.0]
600,600,[0.0]
601,601,[0.0]
602,602,[0.0]
603,603,[1.0]
604,604,[1.0]
605,605,[1.0]
606,606,[1.0]
607,607,[2.0]
608,608,[2.0]
609,609,[2.0]
610,610,[0.0]
611,611,[0.0]
612,612,[0.0]
613,613,[1.0]
614,614,[1.0]
615,615,[1.0]
616,616,[1.0]
617,617,[2.0]
618,618,[2.0]
619,619,[2.0]
620,620,[0.0]
621,621,[0.0]
622,622,[0.0]
623,623,[1.0]
624,624,[1.0]
625,625,[1.0]
626,626,[1.0]
627,627,[2.0]
628,628,[2.0]
629,629,[2.0]
630,630,[0.0]
631,631,[0.0]
632,632,[0.0]
633,633,[1.0]
634,634,[1.0]
635,635,[1.0]
636,636,[1.0]
637,637,[2.0]
638,638,[2.0]
639,639,[2.0]
640,640,[0.0]
641,641,[0.0]
642,642,[0.0]
643,643,[1.0]
644,644,[1.0]
645,645,[1.0]
646,646,[1.0]
647,647,[2.0]
648,648,[2.0]
649,649,[2.0]
650,650,[0.0]
651,651,[0.0]
652,652,[0.0]
653,653,[1.0]
654,654,[1.0]
655,655,[1.0]
656,656,[1.0]
657,657,[2.0]
658,658,[2.0]
659,659,[2.0]
660,660,[0.0]
661,661,[0.0]
662,662,[0.0]
663,663,[1.0]
664,664,[1.0]
665,665,[1.0]
666,666,[1.0]
667,667,[2.0]
668,668,[2.0]
669,669,[2.0]
670,670,[0.0]
671,671,[0.0]
672,672,[0.0]
673,673,[1.0]
674,674,[1.0]
675,675,[1.0]
676,676,[1.0]
677,677,[2.0]
678,678,[2.0]
679,679,[2.0]
680,680,[0.0]
681,681,[0.0]
682,682,[0.0]
683,683,[1.0]
684,684,[1.0]
685,685,[1.0]
686,686,[1.0]
687,687,[2.0]
688,688,[2.0]
689,689,[2.0]
690,690,[0.0]
691,691,[0.0]
692,692,[0.0]
693,693,[1.0]
694,694,[1.0]
695,695,[1.0]
696,696,[1.0]
697,697,[2.0]
698,698,[2.0]
699,699,[2.0]
700,700,[0.0]
701,701,[0.0]
702,702,[0.0]
703,703,[1.0]
704,704,[1.0]
705,705,[1.0]
706,706,[1.0]
707,707,[2.0]
708,708,[2.0]
709,709,[2.0]
710,710,[0.0]
711,711,[0.0]
712,712,[0.0]
713,713,[1.0]
714,714,[1.0]
715,715,[1.0]
716,716,[1.0]
717,717,[2.0]
718,718,[2.0]
719,719,[2.0]
720,720,[0.0]
721,721,[0.0]
722,722,[0.0]
723,723,[1.0]
724,724,[1.0]
725,725,[1.0]
726,726,[1.0]
727,727,[2.0]
728,728,[2.0]
729,729,[2.0]
730,730,[0.0]
731,731,[0.0]
732,732,[0.0]
733,733,[1.0]
734,734,[1.0]
735,735,[1.0]
736,736,[1.0]
737,737,[2.0]
738,738,[2.0]
739,739,[2.0]
740,740,[0.0]
741,741,[0.0]
742,742,[0.0]
743,743,[1.0]
744,744,[1.0]
745,745,[1.0]
746,746,[1.0]
747,747,[2.0]
748,748,[2.0]
749,749,[2.0]
750,750,[0.0]
751,751,[0.0]
752,752,[0.0]
753,753,[1.0]
754,754,[1.0]
755,755,[1.0]
756,756,[1.0]
757,757,[2.0]
758,758,[2.0]
759,759,[2.0]
760,760,[0.0]
761,761,[0.0]
762,762,[0.0]
763,763,[1.0]
764,764,[1.0]
765,765,[1.0]
766,766,[1.0]
767,767,[2.0]
768,768,[2.0]
769,769,[2.0]
770,770,[0.0]
771,771,[0.0]
772,772,[0.0]
773,773,[1.0]
774,774,[1.0]
775,775,[1.0]
776,776,[1.0]
777,777,[2.0]
778,778,[2.0]
779,779,[2.0]
780,780,[0.0]
781,781,[0.0]
782,782,[0.0]
783,783,[1.0]
784,784,[1.0]
785,785,[1.0]
786,786,[1.0]
787,787,[2.0]
788,788,[2.0]
789,789,[2.0]
790,790,[0.0]
791,791,[0.0]
792,792,[0.0]
793,793,[1.0]
794,794,[1.0]
795,795,[1.0]
796,796,[1.0]
797,797,[2.0]
798,798,[2.0]
799,799,[2.0]
800,800,[0.0]
801,801,[0.0]
802,802,[0.0]
803,803,[1.0]
804,804,[1.0]
805,805,[1.0]
806,806,[1.0]
807,807,[2.0]
808,808,[2.0]
809,809,[2.0]
810,810,[0.0]
811,811,[0.0]
812,812,[0.0]
813,813,[1.0]
814,814,[1.0]
815,815,[1.0]
816,816,[1.0]
817,817,[2.0]
818,818,[2.0]
819,819,[2.0]
820,820,[0.0]
821,821,[0.0]
822,822,[0.0]
823,823,[1.0]
824,824,[1.0]
825,825,[1.0]
826,826,[1.0]
827,827,[2.0]
828,828,[2.0]
829,829,[2.0]
830,830,[0.0]
831,831,[0.0]
832,832,[0.0]
833,833,[1.0]
834,834,[1.0]
835,835,[1.0]
836,836,[1.0]
837,837,[2.0]
838,838,[2.0]
839,839,[2.0]
840,840,[0.0]
841,841,[0.0]
842,842,[0.0]
843,843,[1.0]
844,844,[1.0]
845,845,[1.0]
846,846,[1.0]
847,847,[2.0]
848,848,[2.0]
849,849,[2.0]
850,850,[0.0]
851,851,[0.0]
852,852,[0.0]
853,853,[1.0]
854,854,[1.0]
855,855,[1.0]
856,856,[1.0]
857,857,[2.0]
858,858,[2.0]
859,859,[2.0]
860,860,[0.0]
861,861,[0.0]
862,862,[0.0]
863,863,[1.0]
864,864,[1.0]
865,865,[1.0]
866,866,[1.0]
867,867,[2.0]
868,868,[2.0]
869,869,[2.0]
870,870,[0.0]
871,871,[0.0]
872,872,[0.0]
873,873,[1.0]
874,874,[1.0]
875,875,[1.0]
876,876,[1.0]
877,877,[2.0]
878,878,[2.0]
879,879,[2.0]
880,880,[0.0]
881,881,[0.0]
882,882,[0.0]
883,883,[1.0]
884,884,[1.0]
885,885,[1.0]
886,886,[1.0]
887,887,[2.0]
888,888,[2.0]
889,889,[2.0]
890,890,[0.0]
891,891,[0.0]
892,892,[0.0]
893,893,[1.0]
894,894,[1.0]
895,895,[1.0]
896,896,[1.0]
897,897,[2.0]
898,898,[2.0]
899,899,[2.0]
900,900,[0.0]
901,901,[0.0]
902,902,[0.0]
903,903,[1.0]
904,904,[1.0]
905,905,[1.0]
906,906,[1.0]
907,907,[2.0]
908,908,[2.0]
909,909,[2.0]
910,910,[0.0]
911,911,[0.0]
912,912,[0.0]
913,913,[1.0]
914,914,[1.0]
915,915,[1.0]
916,916,[1.0]
917,917,[2.0]
918,918,[2.0]
919,919,[2.0]
920,920,[0.0]
921,921,[0.0]
922,922,[0.0]
923,923,[1.0]
924,924,[1.0]
925,925,[1.0]
926,926,[1.0]
927,927,[2.0]
928,928,[2.0]
929,929,[2.0]
930,930,[0.0]
931,931,[0.0]
932,932,[0.0]
933,933,[1.0]
934,934,[1.0]
935,935,[1.0]
936,936,[1.0]
937,937,[2.0]
938,938,[2.0]
939,939,[2.0]
940,940,[0.0]
941,941,[0.0]
942,942,[0.0]
943,943,[1.0]
944,944,[1.0]
945,945,[1.0]
946,946,[1.0]
947,947,[2.0]
948,948,[2.0]
949,949,[2.0]
950,950,[0.0]
951,951,[0.0]
952,952,[0.0]
953,953,[1.0]
954,954,[1.0]
955,955,[1.0]
956,956,[1.0]
957,957,[2.0]
958,958,[2.0]
959,959,[2.0]
960,960,[0.0]
961,961,[0.0]
962,962,[0.0]
963,963,[1.0]
964,964,[1.0]
965,965,[1.0]
966,966,[1.0]
967,967,[2.0]
968,968,[2.0]
969,969,[2.0]
970,970,[0.0]
971,971,[0.0]
972,972,[0.0]
973,973,[1.0]
974,974,[1.0]
975,975,[1.0]
976,976,[1.0]
977,977,[2.0]
978,978,[2.0]
979,979,[2.0]
980,980,[0.0]
981,981,[0.0]
982,982,[0.0]
983,983,[1.0]
984,984,[1.0]
985,985,[1.0]
986,986,[1.0]
987,987,[2.0]
988,988,[2.0]
989,989,[2.0]
990,990,[0.0]
991,991,[0.0]
992,992,[0.0]
993,993,[1.0]
994,994,[1.0]
995,995,[1.0]
996,996,[1.0]
997,997,[2.0]
998,998,[2.0]
999,999,[2.0]
