patient	severity
0	0
1	0
2	0
3	1
4	1
5	1
6	1
7	2
8	2
9	2
10	0
11	0
12	0
13	1
14	1
15	1
16	1
17	2
18	2
19	2
20	0
21	0
22	0
23	1
24	1
25	1
26	1
27	2
28	2
29	2
30	0
31	0
32	0
33	1
34	1
35	1
36	1
37	2
38	2
39	2
40	0
41	0
42	0
43	1
44	1
45	1
46	1
47	2
48	2
49	2
50	0
51	0
52	0
53	1
54	1
55	1
56	1
57	2
58	2
59	2
60	0
61	0
62	0
63	1
64	1
65	1
66	1
67	2
68	2
69	2
70	0
71	0
72	0
73	1
74	1
75	1
76	1
77	2
78	2
79	2
80	0
81	0
82	0
83	1
84	1
85	1
86	1
87	2
88	2
89	2
90	0
91	0
92	0
93	1
94	1
95	1
96	1
97	2
98	2
99	2
100	0
101	0
102	0
103	1
104	1
105	1
106	1
107	2
108	2
109	2
110	0
111	0
112	0
113	1
114	1
115	1
116	1
117	2
118	2
119	2
120	0
121	0
122	0
123	1
124	1
125	1
126	1
127	2
128	2
129	2
130	0
131	0
132	0
133	1
134	1
135	1
136	1
137	2
138	2
139	2
140	0
141	0
142	0
143	1
144	1
145	1
146	1
147	2
148	2
149	2
150	0
151	0
152	0
153	1
154	1
155	1
156	1
157	2
158	2
159	2
160	0
161	0
162	0
163	1
164	1
165	1
166	1
167	2
168	2
169	2
170	0
171	0
172	0
173	1
174	1
175	1
176	1
177	2
178	2
179	2
180	0
181	0
182	0
183	1
184	1
185	1
186	1
187	2
188	2
189	2
190	0
191	0
192	0
193	1
194	1
195	1
196	1
197	2
198	2
199	2
200	0
201	0
202	0
203	1
204	1
205	1
206	1
207	2
208	2
209	2
210	0
211	0
212	0
213	1
214	1
215	1
216	1
217	2
218	2
219	2
220	0
221	0
222	0
223	1
224	1
225	1
226	1
227	2
228	2
229	2
230	0
231	0
232	0
233	1
234	1
235	1
236	1
237	2
238	2
239	2
240	0
241	0
242	0
243	1
244	1
245	1
246	1
247	2
248	2
249	2
250	0
251	0
252	0
253	1
254	1
255	1
256	1
257	2
258	2
259	2
260	0
261	0
262	0
263	1
264	1
265	1
266	1
267	2
268	2
269	2
270	0
271	0
272	0
273	1
274	1
275	1
276	1
277	2
278	2
279	2
280	0
281	0
282	0
283	1
284	1
285	1
286	1
287	2
288	2
289	2
290	0
291	0
292	0
293	1
294	1
295	1
296	1
297	2
298	2
299	2
300	0
301	0
302	0
303	1
304	1
305	1
306	1
307	2
308	2
309	2
310	0
311	0
312	0
313	1
314	1
315	1
316	1
317	2
318	2
319	2
320	0
321	0
322	0
323	1
324	1
325	1
326	1
327	2
328	2
329	2
330	0
331	0
332	0
333	1
334	1
335	1
336	1
337	2
338	2
339	2
340	0
341	0
342	0
343	1
344	1
345	1
346	1
347	2
348	2
349	2
350	0
351	0
352	0
353	1
354	1
355	1
356	1
357	2
358	2
359	2
360	0
361	0
362	0
363	1
364	1
365	1
366	1
367	2
368	2
369	2
370	0
371	0
372	0
373	1
374	1
375	1
376	1
377	2
378	2
379	2
380	0
381	0
382	0
383	1
384	1
385	1
386	1
387	2
388	2
389	2
390	0
391	0
392	0
393	1
394	1
395	1
396	1
397	2
398	2
399	2
400	0
401	0
402	0
403	1
404	1
405	1
406	1
407	2
408	2
409	2
410	0
411	0
412	0
413	1
414	1
415	1
416	1
417	2
418	2
419	2
420	0
421	0
422	0
423	1
424	1
425	1
426	1
427	2
428	2
429	2
430	0
431	0
432	0
433	1
434	1
435	1
436	1
437	2
438	2
439	2
440	0
441	0
442	0
443	1
444	1
445	1
446	1
447	2
448	2
449	2
450	0
451	0
452	0
453	1
454	1
455	1
456	1
457	2
458	2
459	2
460	0
461	0
462	0
463	1
464	1
465	1
466	1
467	2
468	2
469	2
470	0
471	0
472	0
473	1
474	1
475	1
476	1
477	2
478	2
479	2
480	0
481	0
482	0
483	1
484	1
485	1
486	1
487	2
488	2
489	2
490	0
491	0
492	0
493	1
494	1
495	1
496	1
497	2
498	2
499	2
500	0
501	0
502	0
503	1
504	1
505	1
506	1
507	2
508	2
509	2
510	0
511	0
512	0
513	1
514	1
515	1
516	1
517	2
518	2
519	2
520	0
521	0
522	0
523	1
524	1
525	1
526	1
527	2
528	2
529	2
530	0
531	0
532	0
533	1
534	1
535	1
536	1
537	2
538	2
539	2
540	0
541	0
542	0
543	1
544	1
545	1
546	1
547	2
548	2
549	2
550	0
551	0
552	0
553	1
554	1
555	1
556	1
557	2
558	2
559	2
560	0
561	0
562	0
563	1
564	1
565	1
566	1
567	2
568	2
569	2
570	0
571	0
572	0
573	1
574	1
575	1
576	1
577	2
578	2
579	2
580	0
581	0
582	0
583	1
584	1
585	1
586	1
587	2
588	2
589	2
590	0
591	0
592	0
593	1
594	1
595	1
596	1
597	2
598	2
599	2
600	0
601	0
602	0
603	1
604	1
605	1
606	1
607	2
608	2
609	2
610	0
611	0
612	0
613	1
614	1
615	1
616	1
617	2
618	2
619	2
620	0
621	0
622	0
623	1
624	1
625	1
626	1
627	2
628	2
629	2
630	0
631	0
632	0
633	1
634	1
635	1
636	1
637	2
638	2
639	2
640	0
641	0
642	0
643	1
644	1
645	1
646	1
647	2
648	2
649	2
650	0
651	0
652	0
653	1
654	1
655	1
656	1
657	2
658	2
659	2
660	0
661	0
662	0
663	1
664	1
665	1
666	1
667	2
668	2
669	2
670	0
671	0
672	0
673	1
674	1
675	1
676	1
677	2
678	2
679	2
680	0
681	0
682	0
683	1
684	1
685	1
686	1
687	2
688	2
689	2
690	0
691	0
692	0
693	1
694	1
695	1
696	1
697	2
698	2
699	2
700	0
701	0
702	0
703	1
704	1
705	1
706	1
707	2
708	2
709	2
710	0
711	0
712	0
713	1
714	1
715	1
716	1
717	2
718	2
719	2
720	0
721	0
722	0
723	1
724	1
725	1
726	1
727	2
728	2
729	2
730	0
731	0
732	0
733	1
734	1
735	1
736	1
737	2
738	2
739	2
740	0
741	0
742	0
743	1
744	1
745	1
746	1
747	2
748	2
749	2
750	0
751	0
752	0
753	1
754	1
755	1
756	1
757	2
758	2
759	2
760	0
761	0
762	0
763	1
764	1
765	1
766	1
767	2
768	2
769	2
770	0
771	0
772	0
773	1
774	1
775	1
776	1
777	2
778	2
779	2
780	0
781	0
782	0
783	1
784	1
785	1
786	1
787	2
788	2
789	2
790	0
791	0
792	0
793	1
794	1
795	1
796	1
797	2
798	2
799	2
800	0
801	0
802	0
803	1
804	1
805	1
806	1
807	2
808	2
809	2
810	0
811	0
812	0
813	1
814	1
815	1
816	1
817	2
818	2
819	2
820	0
821	0
822	0
823	1
824	1
825	1
826	1
827	2
828	2
829	2
830	0
831	0
832	0
833	1
834	1
835	1
836	1
837	2
838	2
839	2
840	0
841	0
842	0
843	1
844	1
845	1
846	1
847	2
848	2
849	2
850	0
851	0
852	0
853	1
854	1
855	1
856	1
857	2
858	2
859	2
860	0
861	0
862	0
863	1
864	1
865	1
866	1
867	2
868	2
869	2
870	0
871	0
872	0
873	1
874	1
875	1
876	1
877	2
878	2
879	2
880	0
881	0
882	0
883	1
884	1
885	1
886	1
887	2
888	2
889	2
890	0
891	0
892	0
893	1
894	1
895	1
896	1
897	2
898	2
899	2
900	0
901	0
902	0
903	1
904	1
905	1
906	1
907	2
908	2
909	2
910	0
911	0
912	0
913	1
914	1
915	1
916	1
917	2
918	2
919	2
920	0
921	0
922	0
923	1
924	1
925	1
926	1
927	2
928	2
929	2
930	0
931	0
932	0
933	1
934	1
935	1
936	1
937	2
938	2
939	2
940	0
941	0
942	0
943	1
944	1
945	1
946	1
947	2
948	2
949	2
950	0
951	0
952	0
953	1
954	1
955	1
956	1
957	2
958	2
959	2
960	0
961	0
962	0
963	1
964	1
965	1
966	1
967	2
968	2
969	2
970	0
971	0
972	0
973	1
974	1
975	1
976	1
977	2
978	2
979	2
980	0
981	0
982	0
983	1
984	1
985	1
986	1
987	2
988	2
989	2
990	0
991	0
992	0
993	1
994	1
995	1
996	1
997	2
998	2
999	2
